1 ;        0.00
2 ;        1.00
3 ;        1.00
4 ;        4.00
5 ;        4.00
6 ;        4.00
7 ;        3.00
8 ;        9.00
9 ;        7.00
10 ;       11.00
11 ;       11.00
12 ;       10.00
13 ;        9.00
14 ;        9.00
15 ;        0.00
16 ;        0.00
17 ;        0.00
18 ;        0.00
19 ;        0.00
20 ;        0.00
21 ;        0.00
22 ;        0.00
23 ;        0.00
24 ;        0.00
25 ;        0.00
26 ;        0.00
27 ;        0.00
28 ;        0.00
29 ;        0.00
30 ;        0.00
31 ;        0.00
32 ;        0.00
33 ;        0.00
